…
``` r
cat("Unique neighborhoods:", n_distinct(na.omit(tidy_df$neighborhood)), "\n")
```

    ## Unique neighborhoods: 42

``` r
#answer 2 ZIPs present in ZIP Codes but missing in Zillow ----
zips_only_in_zip <- zip_tbl |>
  anti_join(distinct(zori_long, zip), by = "zip")
print(zips_only_in_zip)
```

    ## # A tibble: 171 × 2
    ##    zip   neighborhood              
    ##    <chr> <chr>                     
    ##  1 10464 Southeast Bronx           
    ##  2 10474 Hunts Point and Mott Haven
    ##  3 10475 Northeast Bronx           
    ##  4 10499 <NA>                      
    ##  5 10550 <NA>                      
    ##  6 10704 <NA>                      
    ##  7 10705 <NA>                      
    ##  8 10803 <NA>                      
    ##  9 11202 <NA>                      
    ## 10 11224 Southern Brooklyn         
    ## # ℹ 161 more rows
…
